Scott Flaska - Estimating Golfer Skill with Shot-Level Data
…
# A tibble: 4 × 5
   hole hole_score  shot num_of_strokes strokes_remaining
  <int>      <int> <int>          <int>             <dbl>
1     1          4     1              1                 4
2     1          4     2              1                 3
3     1          4     3              1                 2
4     1          4     4              1                 1

strokes_remaining %>% 
  filter(player_last_name == 'Mahan')

# A tibble: 272 × 41
   tour_code tour_de…¹  year tourn…² player course perma…³ playe…⁴ playe…⁵ round
   <chr>     <chr>     <int>   <int>  <int>  <int>   <int> <chr>   <chr>   <int>
 1 R         PGA TOUR   2011     410  24781    688      60 Hunter  Mahan       1
 2 R         PGA TOUR   2011     410  24781    688      60 Hunter  Mahan       1
 3 R         PGA TOUR   2011     410  24781    688      60 Hunter  Mahan       1
 4 R         PGA TOUR   2011     410  24781    688      60 Hunter  Mahan       1
 5 R         PGA TOUR   2011     410  24781    688      60 Hunter  Mahan       1
 6 R         PGA TOUR   2011     410  24781    688      60 Hunter  Mahan       1
 7 R         PGA TOUR   2011     410  24781    688      60 Hunter  Mahan       1
 8 R         PGA TOUR   2011     410  24781    688      60 Hunter  Mahan       1
 9 R         PGA TOUR   2011     410  24781    688      60 Hunter  Mahan       1
10 R         PGA TOUR   2011     410  24781    688      60 Hunter  Mahan       1
# … with 262 more rows, 31 more variables: tournament_name <chr>,
#   course_name <chr>, hole <int>, hole_score <int>, par_value <int>,
#   yardage <int>, shot <int>, shot_type_s_p_d <chr>, num_of_strokes <int>,
#   from_location_scorer <chr>, from_location_laser <chr>,
#   to_location_scorer <chr>, to_location_laser <chr>, distance <int>,
#   distance_to_pin <int>, in_the_hole_flag <chr>, around_the_green_flag <chr>,
#   first_putt_flag <chr>, distance_to_hole_after_the_shot <int>, time <int>, …
…
